1586683657084	mozrunner::runner	INFO	Running command: "/usr/bin/firefox" "-marionette" "-foreground" "-no-remote" "-profile" "/tmp/rust_mozprofilehSIhLY"
Gtk-Message: 09:27:37.113: Failed to load module "appmenu-gtk-module"
1586683658031	addons.webextension.doh-rollout@mozilla.org	WARN	Loading extension 'doh-rollout@mozilla.org': Reading manifest: Invalid extension permission: networkStatus
1586683659864	addons.webextension.screenshots@mozilla.org	WARN	Loading extension 'screenshots@mozilla.org': Reading manifest: Invalid extension permission: mozillaAddons
1586683659865	addons.webextension.screenshots@mozilla.org	WARN	Loading extension 'screenshots@mozilla.org': Reading manifest: Invalid extension permission: telemetry
1586683659865	addons.webextension.screenshots@mozilla.org	WARN	Loading extension 'screenshots@mozilla.org': Reading manifest: Invalid extension permission: resource://pdf.js/
1586683659865	addons.webextension.screenshots@mozilla.org	WARN	Loading extension 'screenshots@mozilla.org': Reading manifest: Invalid extension permission: about:reader*
Gtk-Message: 09:27:41.452: Failed to load module "appmenu-gtk-module"
Gtk-Message: 09:27:41.725: Failed to load module "appmenu-gtk-module"
Gtk-Message: 09:27:43.118: Failed to load module "appmenu-gtk-module"
1586683663662	Marionette	INFO	Listening on port 45487
1586683663703	Marionette	WARN	TLS certificate errors will be ignored for this session
1586683676569	Marionette	INFO	Stopped listening on port 45487
1586683777493	mozrunner::runner	INFO	Running command: "/usr/bin/firefox" "-marionette" "-foreground" "-no-remote" "-profile" "/tmp/rust_mozprofileqWypJX"
Gtk-Message: 09:29:37.529: Failed to load module "appmenu-gtk-module"
1586683778430	addons.webextension.doh-rollout@mozilla.org	WARN	Loading extension 'doh-rollout@mozilla.org': Reading manifest: Invalid extension permission: networkStatus
1586683780050	addons.webextension.screenshots@mozilla.org	WARN	Loading extension 'screenshots@mozilla.org': Reading manifest: Invalid extension permission: mozillaAddons
1586683780050	addons.webextension.screenshots@mozilla.org	WARN	Loading extension 'screenshots@mozilla.org': Reading manifest: Invalid extension permission: telemetry
1586683780050	addons.webextension.screenshots@mozilla.org	WARN	Loading extension 'screenshots@mozilla.org': Reading manifest: Invalid extension permission: resource://pdf.js/
1586683780050	addons.webextension.screenshots@mozilla.org	WARN	Loading extension 'screenshots@mozilla.org': Reading manifest: Invalid extension permission: about:reader*
Gtk-Message: 09:29:40.746: Failed to load module "appmenu-gtk-module"
Gtk-Message: 09:29:40.998: Failed to load module "appmenu-gtk-module"
Gtk-Message: 09:29:42.341: Failed to load module "appmenu-gtk-module"
1586683782617	Marionette	INFO	Listening on port 33943
1586683782722	Marionette	WARN	TLS certificate errors will be ignored for this session
1586683808570	Marionette	INFO	Stopped listening on port 33943
